/* XPM */
static char * freemason_xpm[] = {
"48 48 1579 2",
"  	c #FFFFFF",
". 	c #FEFEFE",
"+ 	c #FDFDFE",
"@ 	c #FDFFFA",
"# 	c #96979C",
"$ 	c #747376",
"% 	c #888584",
"& 	c #7D8385",
"* 	c #DEE3DC",
"= 	c #97989B",
"- 	c #AC9C83",
"; 	c #9B8364",
"> 	c #97765A",
", 	c #998770",
"' 	c #9F9C92",
") 	c #E0E0E1",
"! 	c #DCDDDC",
"~ 	c #5B636C",
"{ 	c #AE8659",
"] 	c #A07847",
"^ 	c #A2906B",
"/ 	c #B2833F",
"( 	c #7C7373",
"_ 	c #9F9F9F",
": 	c #D0D0D0",
"< 	c #7F8077",
"[ 	c #B88347",
"} 	c #807476",
"| 	c #828C98",
"1 	c #A9824B",
"2 	c #9A907E",
"3 	c #979799",
"4 	c #FEFEFF",
"5 	c #FFFFFE",
"6 	c #DEDEDD",
"7 	c #66696F",
"8 	c #B08D55",
"9 	c #917447",
"0 	c #A5845B",
"a 	c #A57837",
"b 	c #808180",
"c 	c #A2A1A0",
"d 	c #FFFFFC",
"e 	c #808081",
"f 	c #ADA285",
"g 	c #A08D74",
"h 	c #B0926D",
"i 	c #A58B76",
"j 	c #918D86",
"k 	c #DDDCDD",
"l 	c #FDFEFE",
"m 	c #FFFEFE",
"n 	c #FFFEFF",
"o 	c #FFFFFD",
"p 	c #FBFEF8",
"q 	c #D4D2E0",
"r 	c #717E9D",
"s 	c #9F9770",
"t 	c #4F4B51",
"u 	c #6F676D",
"v 	c #797979",
"w 	c #575A5D",
"x 	c #736B50",
"y 	c #98939B",
"z 	c #9EACC7",
"A 	c #FEFEFA",
"B 	c #ECEEEB",
"C 	c #9EA3BF",
"D 	c #F2F3F3",
"E 	c #4E6AAC",
"F 	c #454D64",
"G 	c #AF9B7E",
"H 	c #6D6A6C",
"I 	c #524E42",
"J 	c #75695C",
"K 	c #4B4743",
"L 	c #AFA693",
"M 	c #716859",
"N 	c #21439A",
"O 	c #F6F4EF",
"P 	c #FCFDF6",
"Q 	c #A8AEC6",
"R 	c #D3D8E2",
"S 	c #FEFFFE",
"T 	c #FDFDFD",
"U 	c #FDFEFD",
"V 	c #C2C8DA",
"W 	c #082581",
"X 	c #34488E",
"Y 	c #8898B5",
"Z 	c #25469C",
"` 	c #9E8C61",
" .	c #A1978A",
"..	c #AAA8AE",
"+.	c #7B706F",
"@.	c #A08960",
"#.	c #A4A2AE",
"$.	c #9B958D",
"%.	c #B39B72",
"&.	c #22336B",
"*.	c #727BAE",
"=.	c #5273AC",
"-.	c #0F3187",
";.	c #7887B5",
">.	c #FDFEFC",
",.	c #9EA1BF",
"'.	c #94A7C8",
").	c #DEDFE1",
"!.	c #6A81B5",
"~.	c #29499A",
"{.	c #253681",
"].	c #3D57A1",
"^.	c #777D86",
"/.	c #A9966E",
"(.	c #9A8E73",
"_.	c #A1A29D",
":.	c #8C7E59",
"<.	c #85745F",
"[.	c #B5AB8F",
"}.	c #9F8E84",
"|.	c #9F8C71",
"1.	c #8A8266",
"2.	c #456BAC",
"3.	c #3352A1",
"4.	c #204284",
"5.	c #38438C",
"6.	c #DADFE3",
"7.	c #AFB3D1",
"8.	c #737DA9",
"9.	c #FEFEFD",
"0.	c #FCFDFE",
"a.	c #5467A2",
"b.	c #10297F",
"c.	c #274086",
"d.	c #657EB3",
"e.	c #4061B3",
"f.	c #224A9A",
"g.	c #21408B",
"h.	c #93815D",
"i.	c #BB9B52",
"j.	c #A2937D",
"k.	c #9E8358",
"l.	c #6F6F7B",
"m.	c #575F6C",
"n.	c #927852",
"o.	c #9D8C82",
"p.	c #C9A85C",
"q.	c #A3875C",
"r.	c #3A4E7F",
"s.	c #2957B2",
"t.	c #25408A",
"u.	c #5E70A7",
"v.	c #4B6AB2",
"w.	c #102F81",
"x.	c #22449B",
"y.	c #FAF5F3",
"z.	c #FEFFFF",
"A.	c #E5EAEE",
"B.	c #F4FAF8",
"C.	c #4061A4",
"D.	c #294E9A",
"E.	c #283D8B",
"F.	c #3D5694",
"G.	c #4263AA",
"H.	c #2864C6",
"I.	c #3E4F6D",
"J.	c #BC9C62",
"K.	c #E3B967",
"L.	c #D1B166",
"M.	c #967B5B",
"N.	c #535F86",
"O.	c #2B4592",
"P.	c #A5906A",
"Q.	c #AF9050",
"R.	c #EBC16D",
"S.	c #C2A76F",
"T.	c #6B6364",
"U.	c #244EAC",
"V.	c #2A4798",
"W.	c #4F73A7",
"X.	c #2856A3",
"Y.	c #284189",
"Z.	c #2B3887",
"`.	c #DEDBDC",
" +	c #E5E6EC",
".+	c #FAFAF9",
"++	c #506394",
"@+	c #17348A",
"#+	c #203280",
"$+	c #7686B5",
"%+	c #3A5FAE",
"&+	c #2B52A3",
"*+	c #204493",
"=+	c #4D6DA7",
"-+	c #2252AF",
";+	c #94896F",
">+	c #C1A972",
",+	c #F5D9A5",
"'+	c #9F8E64",
")+	c #8A7F70",
"!+	c #2F519F",
"~+	c #395CAF",
"{+	c #6B6D78",
"]+	c #A68759",
"^+	c #E4C582",
"/+	c #D3C79C",
"(+	c #A79364",
"_+	c #1E376C",
":+	c #4667AD",
"<+	c #2F5BB0",
"[+	c #275AAA",
"}+	c #233D89",
"|+	c #6277A7",
"1+	c #4464A7",
"2+	c #193780",
"3+	c #1F357F",
"4+	c #FFFFF9",
"5+	c #FEFFF9",
"6+	c #FEFFFD",
"7+	c #7A8CBB",
"8+	c #1D3E8C",
"9+	c #234285",
"0+	c #2F4398",
"a+	c #4C6BA3",
"b+	c #2E5EBA",
"c+	c #315BB4",
"d+	c #264EA3",
"e+	c #667080",
"f+	c #B08E60",
"g+	c #F1DEB6",
"h+	c #D7CDB4",
"i+	c #9B7E4C",
"j+	c #5C6879",
"k+	c #2650AA",
"l+	c #2952A2",
"m+	c #4C698F",
"n+	c #917852",
"o+	c #C4AF80",
"p+	c #F6E5BE",
"q+	c #BBA372",
"r+	c #685F54",
"s+	c #4662A8",
"t+	c #386CCF",
"u+	c #214799",
"v+	c #42599B",
"w+	c #4D6AB8",
"x+	c #3055A9",
"y+	c #283E84",
"z+	c #384B9C",
"A+	c #FDFFF8",
"B+	c #FAF9F8",
"C+	c #E5EAEF",
"D+	c #C7CCD8",
"E+	c #7987B0",
"F+	c #476CB6",
"G+	c #2552A4",
"H+	c #254795",
"I+	c #384E9C",
"J+	c #4E66A7",
"K+	c #4E73C0",
"L+	c #3458B8",
"M+	c #77644D",
"N+	c #CBBF9A",
"O+	c #FCE1B9",
"P+	c #B29F69",
"Q+	c #958671",
"R+	c #2F4876",
"S+	c #2D56B1",
"T+	c #2D52A7",
"U+	c #2E4D9D",
"V+	c #928D86",
"W+	c #957B53",
"X+	c #F7DFAB",
"Y+	c #D6BFA0",
"Z+	c #A68959",
"`+	c #294D8F",
" @	c #4466B9",
".@	c #3E4D99",
"+@	c #4468AE",
"@@	c #2761C8",
"#@	c #244B9A",
"$@	c #2D4283",
"%@	c #5966A3",
"&@	c #BCC4E1",
"*@	c #DEE1E9",
"=@	c #F4F4F3",
"-@	c #CBCDD9",
";@	c #122F81",
">@	c #1A3589",
",@	c #414C96",
"'@	c #586FA2",
")@	c #3663B0",
"!@	c #2D68C4",
"~@	c #2A4E9E",
"{@	c #3B559F",
"]@	c #4265B5",
"^@	c #305085",
"/@	c #BFA76A",
"(@	c #E9D1B9",
"_@	c #EEDFBD",
":@	c #89734C",
"<@	c #707379",
"[@	c #264591",
"}@	c #3054AB",
"|@	c #2A4EA0",
"1@	c #3256AC",
"2@	c #4B5C8A",
"3@	c #A38F5B",
"4@	c #C8BDA5",
"5@	c #FBEBC2",
"6@	c #B8A582",
"7@	c #5F615E",
"8@	c #28459B",
"9@	c #4669A6",
"0@	c #4874CC",
"a@	c #285BAD",
"b@	c #24428F",
"c@	c #5266A4",
"d@	c #5D79BB",
"e@	c #284796",
"f@	c #092477",
"g@	c #929ABA",
"h@	c #F2F5F1",
"i@	c #445FA5",
"j@	c #253D8F",
"k@	c #24438D",
"l@	c #253E8E",
"m@	c #4B639D",
"n@	c #4465A9",
"o@	c #4D7CCB",
"p@	c #3E55A8",
"q@	c #344EA4",
"r@	c #8C7F65",
"s@	c #C0AE93",
"t@	c #FFFFE7",
"u@	c #B0A594",
"v@	c #968363",
"w@	c #3B4675",
"x@	c #2B4EA5",
"y@	c #37589F",
"z@	c #264D9B",
"A@	c #3152A4",
"B@	c #254792",
"C@	c #8C7E6F",
"D@	c #A79368",
"E@	c #FFF6E5",
"F@	c #DDD7BC",
"G@	c #927A45",
"H@	c #3D5392",
"I@	c #2F60BC",
"J@	c #4268B1",
"K@	c #314799",
"L@	c #4B6AAA",
"M@	c #365AAE",
"N@	c #2354AA",
"O@	c #213D85",
"P@	c #203887",
"Q@	c #D5D9E2",
"R@	c #FFFDFE",
"S@	c #778CB4",
"T@	c #4F6CB7",
"U@	c #2555A6",
"V@	c #2E5AB4",
"W@	c #2648A0",
"X@	c #3C5C9C",
"Y@	c #435EA9",
"Z@	c #2A5FBF",
"`@	c #365291",
" #	c #A5814C",
".#	c #FFFCFE",
"+#	c #ADA18C",
"@#	c #9B7936",
"##	c #837F87",
"$#	c #2E3E87",
"%#	c #2347A0",
"&#	c #35569D",
"*#	c #204896",
"=#	c #315194",
"-#	c #1D4993",
";#	c #717A96",
">#	c #A57F42",
",#	c #A08D71",
"'#	c #FAF4EB",
")#	c #C5AF8D",
"!#	c #464957",
"~#	c #2E56AA",
"{#	c #3757A2",
"]#	c #4A67A2",
"^#	c #3F6ABD",
"/#	c #2E5FC5",
"(#	c #23438C",
"_#	c #2F4091",
":#	c #5A69A4",
"<#	c #DFE5E4",
"[#	c #FEFDFD",
"}#	c #F3F1F6",
"|#	c #556D9F",
"1#	c #183283",
"2#	c #344B92",
"3#	c #5067A4",
"4#	c #4C69AA",
"5#	c #3762BD",
"6#	c #4579CC",
"7#	c #405CB2",
"8#	c #38529E",
"9#	c #365EB4",
"0#	c #6E624D",
"a#	c #DBD0BE",
"b#	c #A79178",
"c#	c #9F8043",
"d#	c #AFA99B",
"e#	c #37405C",
"f#	c #37509E",
"g#	c #244188",
"h#	c #2A4D97",
"i#	c #284595",
"j#	c #274589",
"k#	c #375698",
"l#	c #1E346C",
"m#	c #A7A6A3",
"n#	c #B09559",
"o#	c #95815B",
"p#	c #CBCACD",
"q#	c #A2894D",
"r#	c #213E85",
"s#	c #3E5FAC",
"t#	c #3263B8",
"u#	c #4165B4",
"v#	c #274091",
"w#	c #3E5A9C",
"x#	c #546BA4",
"y#	c #5776BA",
"z#	c #244997",
"A#	c #3F5493",
"B#	c #CBCCD5",
"C#	c #FCFDFA",
"D#	c #FFFFF5",
"E#	c #4A5E9F",
"F#	c #1D3989",
"G#	c #263F8F",
"H#	c #223B8E",
"I#	c #31489E",
"J#	c #4460A4",
"K#	c #406BAB",
"L#	c #335DBC",
"M#	c #2359B4",
"N#	c #2E4284",
"O#	c #B3996D",
"P#	c #A29991",
"Q#	c #A38767",
"R#	c #A9A9B1",
"S#	c #4D5564",
"T#	c #254184",
"U#	c #2C468F",
"V#	c #355091",
"W#	c #3F5595",
"X#	c #374E95",
"Y#	c #244386",
"Z#	c #31549B",
"`#	c #24438C",
" $	c #354173",
".$	c #8C8EA4",
"+$	c #AF9E74",
"@$	c #9A8B6D",
"#$	c #B29F79",
"$$	c #4F5364",
"%$	c #1E51AA",
"&$	c #314E9D",
"*$	c #365198",
"=$	c #4D6DAB",
"-$	c #3C5EAD",
";$	c #315BB7",
">$	c #2A4C9D",
",$	c #1E3B83",
"'$	c #203A8E",
")$	c #E6E8E9",
"!$	c #FDFFFF",
"~$	c #FBFEF9",
"{$	c #C4CCD6",
"]$	c #4160A9",
"^$	c #375EAC",
"/$	c #2B5DB7",
"($	c #2760B5",
"_$	c #3153A0",
":$	c #37529D",
"<$	c #3C5EA7",
"[$	c #305EBD",
"}$	c #6C6359",
"|$	c #A9997F",
"1$	c #927A52",
"2$	c #9F9EA4",
"3$	c #243668",
"4$	c #294485",
"5$	c #5B5F6F",
"6$	c #8B7B75",
"7$	c #8F6E4B",
"8$	c #967346",
"9$	c #967850",
"0$	c #777578",
"a$	c #343C5E",
"b$	c #847C6E",
"c$	c #6E6268",
"d$	c #2F4178",
"e$	c #737B96",
"f$	c #AD9476",
"g$	c #988C79",
"h$	c #887347",
"i$	c #25418D",
"j$	c #4564AE",
"k$	c #385DAF",
"l$	c #456CBF",
"m$	c #3D65BC",
"n$	c #2848A0",
"o$	c #223B83",
"p$	c #2E428D",
"q$	c #898DAA",
"r$	c #FDFDFC",
"s$	c #E4E8EB",
"t$	c #7079A5",
"u$	c #5D6BB0",
"v$	c #5269AF",
"w$	c #3E60A8",
"x$	c #4676C1",
"y$	c #3F70C7",
"z$	c #3162BE",
"A$	c #2953A6",
"B$	c #264585",
"C$	c #A08B5A",
"D$	c #8A7253",
"E$	c #ADA393",
"F$	c #324581",
"G$	c #394678",
"H$	c #A39360",
"I$	c #CEA03C",
"J$	c #CC932A",
"K$	c #D4A343",
"L$	c #A78C54",
"M$	c #A88B4C",
"N$	c #D5A14D",
"O$	c #C6AA65",
"P$	c #D29B35",
"Q$	c #A68A4F",
"R$	c #3C5695",
"S$	c #213C86",
"T$	c #939495",
"U$	c #99805C",
"V$	c #B1996D",
"W$	c #3D445F",
"X$	c #2B56AF",
"Y$	c #3155AB",
"Z$	c #3453A2",
"`$	c #2B438F",
" %	c #3F5A9D",
".%	c #435D9F",
"+%	c #6178BC",
"@%	c #687FB8",
"#%	c #C2C9D6",
"$%	c #D5D7DE",
"%%	c #264293",
"&%	c #123785",
"*%	c #17357F",
"=%	c #203C8F",
"-%	c #3853A4",
";%	c #374C99",
">%	c #3E5BA5",
",%	c #4062B1",
"'%	c #2956AD",
")%	c #676268",
"!%	c #A2875B",
"~%	c #A49170",
"{%	c #5C6682",
"]%	c #2C4572",
"^%	c #BAAC88",
"/%	c #E9BF68",
"(%	c #D9B866",
"_%	c #E7C37C",
":%	c #6A6D77",
"<%	c #2E4A86",
"[%	c #384D8C",
"}%	c #5C5E71",
"|%	c #DDBE7B",
"1%	c #EABC64",
"2%	c #B09D73",
"3%	c #3D4B8F",
"4%	c #22408C",
"5%	c #364B79",
"6%	c #B8A895",
"7%	c #887654",
"8%	c #92774F",
"9%	c #173D81",
"0%	c #3A54A4",
"a%	c #3C5CAC",
"b%	c #4266B6",
"c%	c #3561AA",
"d%	c #346BC1",
"e%	c #2E55A1",
"f%	c #1F459A",
"g%	c #15348E",
"h%	c #A6A7C2",
"i%	c #BDC0C2",
"j%	c #B2B1B0",
"k%	c #9FA2A0",
"l%	c #939491",
"m%	c #4E5976",
"n%	c #3A4065",
"o%	c #7B7671",
"p%	c #585971",
"q%	c #25489E",
"r%	c #3F6BC0",
"s%	c #3B5DAE",
"t%	c #2A4E9D",
"u%	c #2D529C",
"v%	c #9E8250",
"w%	c #897246",
"x%	c #A19F9B",
"y%	c #1D326A",
"z%	c #828086",
"A%	c #FDF1CA",
"B%	c #F5DFC1",
"C%	c #F4E0C4",
"D%	c #C7B9AC",
"E%	c #22356C",
"F%	c #283F85",
"G%	c #263A81",
"H%	c #283D72",
"I%	c #999A94",
"J%	c #FFF3C9",
"K%	c #BAB49F",
"L%	c #364A88",
"M%	c #254687",
"N%	c #1F3585",
"O%	c #7D8596",
"P%	c #A28D5C",
"Q%	c #99814A",
"R%	c #43496A",
"S%	c #345CB7",
"T%	c #3E62B4",
"U%	c #5176CC",
"V%	c #2F61B3",
"W%	c #324875",
"X%	c #5C5D6F",
"Y%	c #293651",
"Z%	c #263572",
"`%	c #888A8E",
" &	c #AAADAE",
".&	c #ADA9A9",
"+&	c #BDBEBA",
"@&	c #969495",
"#&	c #947E7F",
"$&	c #D5BC94",
"%&	c #C7AA8A",
"&&	c #F4C984",
"*&	c #CBAD84",
"=&	c #DDC37C",
"-&	c #FFD780",
";&	c #A18D68",
">&	c #2E52A1",
",&	c #3B6DBB",
"'&	c #2F5DC5",
")&	c #54586F",
"!&	c #A28047",
"~&	c #AB9D89",
"{&	c #4A5673",
"]&	c #2D3B6D",
"^&	c #EBE4DB",
"/&	c #FAF8EA",
"(&	c #FBF8EC",
"_&	c #FFFFF7",
":&	c #7D7D7F",
"<&	c #293F7F",
"[&	c #213070",
"}&	c #212D6C",
"|&	c #263776",
"1&	c #4F4D59",
"2&	c #F0DFB8",
"3&	c #B4A18A",
"4&	c #324278",
"5&	c #28468A",
"6&	c #2D4996",
"7&	c #2B3C7A",
"8&	c #AEAAA3",
"9&	c #97794C",
"0&	c #7B6749",
"a&	c #204089",
"b&	c #31529D",
"c&	c #223A95",
"d&	c #686761",
"e&	c #F9CC7A",
"f&	c #F7D178",
"g&	c #C2A787",
"h&	c #D8BC85",
"i&	c #D9B386",
"j&	c #BE9E8D",
"k&	c #A78F88",
"l&	c #6A6366",
"m&	c #9B9A9D",
"n&	c #8C786C",
"o&	c #E3B477",
"p&	c #AC9075",
"q&	c #D7AD66",
"r&	c #C69D6F",
"s&	c #CC9E5C",
"t&	c #E9AF44",
"u&	c #967D4E",
"v&	c #28428E",
"w&	c #2C4FA5",
"x&	c #A9874D",
"y&	c #7A623E",
"z&	c #8D9494",
"A&	c #2B498D",
"B&	c #425076",
"C&	c #F8DC9E",
"D&	c #E4C77B",
"E&	c #E6C880",
"F&	c #F5DC96",
"G&	c #5D6166",
"H&	c #283E7C",
"I&	c #1E2960",
"J&	c #1C2A59",
"K&	c #1C2B62",
"L&	c #283756",
"M&	c #39333A",
"N&	c #302C3B",
"O&	c #29426F",
"P&	c #2F468D",
"Q&	c #234596",
"R&	c #737A98",
"S&	c #947E65",
"T&	c #A58333",
"U&	c #394873",
"V&	c #2D52B2",
"W&	c #E4B34D",
"X&	c #DAA439",
"Y&	c #BC9366",
"Z&	c #D5AD60",
"`&	c #AB915C",
" *	c #BB9466",
".*	c #B19074",
"+*	c #6E666C",
"@*	c #FBFBFA",
"#*	c #FAFAFA",
"$*	c #9A9D9F",
"%*	c #8F735D",
"&*	c #CCA35F",
"**	c #BB9863",
"=*	c #CDA231",
"-*	c #C2985F",
";*	c #BA8D4B",
">*	c #D6A350",
",*	c #8D7F53",
"'*	c #4A4B55",
")*	c #81622B",
"!*	c #A6A392",
"~*	c #2C4164",
"{*	c #224596",
"]*	c #515C77",
"^*	c #9C7F59",
"/*	c #AB8F66",
"(*	c #A98E56",
"_*	c #C2B68B",
":*	c #4D525E",
"<*	c #233476",
"[*	c #2E3258",
"}*	c #5F6168",
"|*	c #736E7A",
"1*	c #7A7677",
"2*	c #818292",
"3*	c #8C9397",
"4*	c #7A7C84",
"5*	c #6F7175",
"6*	c #35417B",
"7*	c #274296",
"8*	c #173581",
"9*	c #9DA495",
"0*	c #8A6737",
"a*	c #6B5B4D",
"b*	c #5D5961",
"c*	c #DAAB57",
"d*	c #BA8941",
"e*	c #B58550",
"f*	c #D09F3A",
"g*	c #CA974A",
"h*	c #C09856",
"i*	c #A68770",
"j*	c #6E6669",
"k*	c #F1F1F3",
"l*	c #A0A0A4",
"m*	c #947964",
"n*	c #C49F61",
"o*	c #BD9B6A",
"p*	c #C19539",
"q*	c #C19D6D",
"r*	c #D3A36B",
"s*	c #E5BC61",
"t*	c #956E35",
"u*	c #947B5D",
"v*	c #6F757D",
"w*	c #274494",
"x*	c #3656A9",
"y*	c #5B657C",
"z*	c #ADA589",
"A*	c #76635E",
"B*	c #6F5538",
"C*	c #858989",
"D*	c #595A64",
"E*	c #223072",
"F*	c #35385E",
"G*	c #8B877B",
"H*	c #918B71",
"I*	c #887D6C",
"J*	c #A18D71",
"K*	c #816E66",
"L*	c #979082",
"M*	c #818176",
"N*	c #2D416D",
"O*	c #2E4792",
"P*	c #2B4C96",
"Q*	c #58658A",
"R*	c #9A8B7D",
"S*	c #9A7437",
"T*	c #A1874D",
"U*	c #DFBB5B",
"V*	c #BA9971",
"W*	c #B4884A",
"X*	c #B6904F",
"Y*	c #B6956B",
"Z*	c #AA8866",
"`*	c #5D5C5D",
" =	c #D5D7D7",
".=	c #F2F2F1",
"+=	c #9BA1A3",
"@=	c #967F61",
"#=	c #C9A358",
"$=	c #B89E81",
"%=	c #D9B55C",
"&=	c #D2B36B",
"*=	c #A4835C",
"==	c #8F6F33",
"-=	c #A19F9A",
";=	c #223769",
">=	c #2B519E",
",=	c #2D51A4",
"'=	c #39476B",
")=	c #A99B8E",
"!=	c #8D7F6C",
"~=	c #4A3E32",
"{=	c #AD9A99",
"]=	c #6C6971",
"^=	c #293970",
"/=	c #243066",
"(=	c #2D385C",
"_=	c #797473",
":=	c #887450",
"<=	c #81624C",
"[=	c #907753",
"}=	c #696B71",
"|=	c #434E70",
"1=	c #2E457C",
"2=	c #243E84",
"3=	c #1E418B",
"4=	c #122F7A",
"5=	c #A0A1A4",
"6=	c #896C49",
"7=	c #947740",
"8=	c #B19469",
"9=	c #DEB865",
"0=	c #BD9E71",
"a=	c #B29362",
"b=	c #B09562",
"c=	c #595559",
"d=	c #BDBBB9",
"e=	c #E4E4E4",
"f=	c #7A88B9",
"g=	c #24345F",
"h=	c #A6886C",
"i=	c #D8B273",
"j=	c #C8A777",
"k=	c #D1B478",
"l=	c #A17B40",
"m=	c #967F67",
"n=	c #938B83",
"o=	c #9E8B6D",
"p=	c #233979",
"q=	c #2C54A9",
"r=	c #334078",
"s=	c #817B78",
"t=	c #7F7261",
"u=	c #766B60",
"v=	c #776468",
"w=	c #90898D",
"x=	c #253666",
"y=	c #1E306F",
"z=	c #202D6D",
"A=	c #63626B",
"B=	c #99928B",
"C=	c #614B42",
"D=	c #A19A95",
"E=	c #454C5D",
"F=	c #2F4491",
"G=	c #1F3776",
"H=	c #25428C",
"I=	c #203C80",
"J=	c #7A7476",
"K=	c #B0A88D",
"L=	c #999589",
"M=	c #8C6735",
"N=	c #A69365",
"O=	c #D0AF78",
"P=	c #CAA670",
"Q=	c #B19465",
"R=	c #34353D",
"S=	c #3D5394",
"T=	c #C6BCC3",
"U=	c #F3F4F2",
"V=	c #CCCCDB",
"W=	c #1A3588",
"X=	c #233E91",
"Y=	c #3A4873",
"Z=	c #B29176",
"`=	c #D4B182",
" -	c #AE9D74",
".-	c #8F6A38",
"+-	c #98979A",
"@-	c #AB987B",
"#-	c #FAE2A7",
"$-	c #9B8775",
"%-	c #1A2B62",
"&-	c #395EAF",
"*-	c #52586B",
"=-	c #514239",
"--	c #635043",
";-	c #6B7071",
">-	c #676A63",
",-	c #3F425E",
"'-	c #243B80",
")-	c #294479",
"!-	c #5F6266",
"~-	c #9A908E",
"{-	c #362920",
"]-	c #727274",
"^-	c #454C57",
"/-	c #27417B",
"(-	c #29478A",
"_-	c #1B3878",
":-	c #625F63",
"<-	c #E9CEA0",
"[-	c #E6D6A8",
"}-	c #A4A7A7",
"|-	c #98764F",
"1-	c #8A7146",
"2-	c #B39C74",
"3-	c #B99A6E",
"4-	c #3D363E",
"5-	c #163169",
"6-	c #15398F",
"7-	c #878EAB",
"8-	c #F7F7F3",
"9-	c #DEE5E2",
"0-	c #6477AD",
"a-	c #657CC9",
"b-	c #3B517E",
"c-	c #B1A480",
"d-	c #9A7543",
"e-	c #9C8D75",
"f-	c #978D81",
"g-	c #CBAB84",
"h-	c #CAB78D",
"i-	c #F8DAA7",
"j-	c #AD9D7B",
"k-	c #1B306C",
"l-	c #3A5189",
"m-	c #706C6C",
"n-	c #6D6258",
"o-	c #8E8D86",
"p-	c #68605A",
"q-	c #A29D9F",
"r-	c #575866",
"s-	c #5D6472",
"t-	c #746E64",
"u-	c #837C75",
"v-	c #828483",
"w-	c #8A8478",
"x-	c #444B59",
"y-	c #33519C",
"z-	c #172F70",
"A-	c #716F6A",
"B-	c #E0C393",
"C-	c #BF9A7A",
"D-	c #D0B295",
"E-	c #B3A890",
"F-	c #A4A1A2",
"G-	c #977130",
"H-	c #8F7F62",
"I-	c #4E4C54",
"J-	c #47568E",
"K-	c #414E7E",
"L-	c #878EA0",
"M-	c #C9CCC9",
"N-	c #F0F0F0",
"O-	c #FCFFFD",
"P-	c #FDFBF2",
"Q-	c #B4B7C0",
"R-	c #2A3E8E",
"S-	c #26459A",
"T-	c #333E63",
"U-	c #B8873F",
"V-	c #989A9C",
"W-	c #AD967C",
"X-	c #E9D3A1",
"Y-	c #DEC990",
"Z-	c #D2B48A",
"`-	c #E7C885",
" ;	c #AA987B",
".;	c #223579",
"+;	c #304A82",
"@;	c #60636A",
"#;	c #A1998C",
"$;	c #958D7E",
"%;	c #6C6765",
"&;	c #807468",
"*;	c #C3B8AC",
"=;	c #787269",
"-;	c #686970",
";;	c #9B9897",
">;	c #999983",
",;	c #475061",
"';	c #19337B",
");	c #6F6B68",
"!;	c #EACE90",
"~;	c #DBC489",
"{;	c #CDB27D",
"];	c #ECD19E",
"^;	c #DCBF99",
"/;	c #9D9D92",
"(;	c #B39363",
"_;	c #5F4A30",
":;	c #1D3B80",
"<;	c #4865B2",
"[;	c #6076A0",
"};	c #A8AA97",
"|;	c #D4D4D5",
"1;	c #F4F4F4",
"2;	c #FDFEF9",
"3;	c #506BAF",
"4;	c #1A3177",
"5;	c #18459A",
"6;	c #776448",
"7;	c #A9947E",
"8;	c #82765E",
"9;	c #D7A983",
"0;	c #C6AF82",
"a;	c #D9C28A",
"b;	c #CCAD7D",
"c;	c #B5976E",
"d;	c #E9CD71",
"e;	c #A39565",
"f;	c #263B74",
"g;	c #2C4C94",
"h;	c #454C67",
"i;	c #61667D",
"j;	c #565E73",
"k;	c #394663",
"l;	c #2A3E6B",
"m;	c #384D8A",
"n;	c #2E325F",
"o;	c #303D67",
"p;	c #23305A",
"q;	c #726F63",
"r;	c #F2CF76",
"s;	c #CDB173",
"t;	c #B0956B",
"u;	c #E8CF96",
"v;	c #CDB586",
"w;	c #DCC799",
"x;	c #B7A479",
"y;	c #A39B9A",
"z;	c #946826",
"A;	c #193879",
"B;	c #213C8F",
"C;	c #25408E",
"D;	c #B2ADB4",
"E;	c #E5E5E2",
"F;	c #455990",
"G;	c #344FA6",
"H;	c #455E95",
"I;	c #B4873F",
"J;	c #868D9F",
"K;	c #172755",
"L;	c #A18F66",
"M;	c #DBC689",
"N;	c #B9A077",
"O;	c #C8AA72",
"P;	c #CFB686",
"Q;	c #CDAE6B",
"R;	c #D8B652",
"S;	c #AB9453",
"T;	c #21336D",
"U;	c #254A9E",
"V;	c #315195",
"W;	c #204184",
"X;	c #335299",
"Y;	c #2B4895",
"Z;	c #203E84",
"`;	c #274388",
" >	c #1F4791",
".>	c #243F84",
"+>	c #7A705D",
"@>	c #DFBB59",
"#>	c #D5B767",
"$>	c #C9AC74",
"%>	c #DCC67F",
"&>	c #BEA570",
"*>	c #D3B785",
"=>	c #C8AD7F",
"->	c #403F52",
";>	c #505F8B",
">>	c #CDAD76",
",>	c #4B444B",
"'>	c #2D4395",
")>	c #3C51A2",
"!>	c #9FA7B4",
"~>	c #F2EEE9",
"{>	c #C3C9D9",
"]>	c #836F4C",
"^>	c #B7A38A",
"/>	c #243764",
"(>	c #2761C0",
"_>	c #2E4F8A",
":>	c #A99764",
"<>	c #D8B687",
"[>	c #D0B680",
"}>	c #DBBD6B",
"|>	c #CBAF6C",
"1>	c #C0A36A",
"2>	c #DDB659",
"3>	c #A79A5E",
"4>	c #122C66",
"5>	c #3852A5",
"6>	c #243E90",
"7>	c #34549C",
"8>	c #234498",
"9>	c #2D4482",
"0>	c #28488F",
"a>	c #18337A",
"b>	c #776B60",
"c>	c #EEC466",
"d>	c #D0AE63",
"e>	c #BFA572",
"f>	c #E1BF6C",
"g>	c #CBB070",
"h>	c #D5BD7E",
"i>	c #CEB380",
"j>	c #40403E",
"k>	c #243F89",
"l>	c #2550A0",
"m>	c #929299",
"n>	c #A17941",
"o>	c #67697A",
"p>	c #B3AAA7",
"q>	c #D6D7D0",
"r>	c #EEEEEE",
"s>	c #FCFCFD",
"t>	c #D0C8C9",
"u>	c #A88848",
"v>	c #6D7690",
"w>	c #1B3B94",
"x>	c #305AB5",
"y>	c #4C6EBA",
"z>	c #36437C",
"A>	c #A58E65",
"B>	c #D1AF6D",
"C>	c #B59A68",
"D>	c #D8AF4D",
"E>	c #C7AC64",
"F>	c #CAB186",
"G>	c #EBCB7C",
"H>	c #B6A47C",
"I>	c #212C64",
"J>	c #2F53A9",
"K>	c #2F4D9C",
"L>	c #274A9E",
"M>	c #2E5197",
"N>	c #173479",
"O>	c #847E6E",
"P>	c #F8D481",
"Q>	c #E1C784",
"R>	c #B89C6E",
"S>	c #D9B754",
"T>	c #C2A368",
"U>	c #CEA871",
"V>	c #C5A675",
"W>	c #41444D",
"X>	c #3B5385",
"Y>	c #2C4592",
"Z>	c #1A3B8D",
"`>	c #415886",
" ,	c #BAA276",
".,	c #86715A",
"+,	c #B5B9B9",
"@,	c #E4E4E5",
"#,	c #F9F9F9",
"$,	c #958563",
"%,	c #AC9C8B",
"&,	c #193884",
"*,	c #5377BE",
"=,	c #5D7AA9",
"-,	c #29468D",
";,	c #264AAA",
">,	c #2D528E",
",,	c #96825E",
"',	c #D3B466",
"),	c #C3A16D",
"!,	c #C7A569",
"~,	c #C3AB7D",
"{,	c #D4B89B",
"],	c #FBE1A5",
"^,	c #BDB188",
"/,	c #283465",
"(,	c #3350A3",
"_,	c #2C53AC",
":,	c #263D7D",
"<,	c #7B7666",
"[,	c #FFE4AE",
"},	c #E8CFA2",
"|,	c #C4A689",
"1,	c #D2B479",
"2,	c #BA965C",
"3,	c #CEAC5E",
"4,	c #B59871",
"5,	c #2F3146",
"6,	c #264F98",
"7,	c #2B5CB5",
"8,	c #546EA8",
"9,	c #505E99",
"0,	c #0E307C",
"a,	c #818691",
"b,	c #937943",
"c,	c #BEC0C6",
"d,	c #EDEDED",
"e,	c #FEFDFE",
"f,	c #D8D9DD",
"g,	c #95814D",
"h,	c #9D9DAB",
"i,	c #979DB0",
"j,	c #5E6F99",
"k,	c #334A91",
"l,	c #1B4084",
"m,	c #2E59B0",
"n,	c #3962BB",
"o,	c #3E496F",
"p,	c #A78F6F",
"q,	c #CAA76A",
"r,	c #BEAE80",
"s,	c #CDB77B",
"t,	c #C9B489",
"u,	c #CFBA9D",
"v,	c #FFF0C2",
"w,	c #BCB49B",
"x,	c #162E65",
"y,	c #1B3E91",
"z,	c #837E7E",
"A,	c #FFF2CC",
"B,	c #E2CEAF",
"C,	c #B7A283",
"D,	c #D4B880",
"E,	c #C3A974",
"F,	c #CCB67F",
"G,	c #B89E6A",
"H,	c #354347",
"I,	c #37468A",
"J,	c #25418F",
"K,	c #2353A7",
"L,	c #4262A8",
"M,	c #546EA5",
"N,	c #6D717F",
"O,	c #7F8593",
"P,	c #9D8B6C",
"Q,	c #A39887",
"R,	c #EAE7E9",
"S,	c #F9FBFC",
"T,	c #A99279",
"U,	c #958B80",
"V,	c #C6C7C7",
"W,	c #CDC7BC",
"X,	c #6979A6",
"Y,	c #1B367F",
"Z,	c #244A90",
"`,	c #4668AB",
" '	c #4A6196",
".'	c #2E43A4",
"+'	c #324B8D",
"@'	c #897A5E",
"#'	c #D7BA7C",
"$'	c #C0A88C",
"%'	c #CCB38C",
"&'	c #CDB695",
"*'	c #C0A699",
"='	c #ECD5AA",
"-'	c #B5B197",
";'	c #867F75",
">'	c #F9E3C0",
",'	c #CDBD9E",
"''	c #B4A17F",
")'	c #D7C193",
"!'	c #B79B79",
"~'	c #D9BB87",
"{'	c #C2A37B",
"]'	c #403D52",
"^'	c #254A9D",
"/'	c #4768AD",
"('	c #3F5094",
"_'	c #243C87",
":'	c #213C8B",
"<'	c #325099",
"['	c #ABA899",
"}'	c #BDBCB7",
"|'	c #999797",
"1'	c #927656",
"2'	c #D8D7D7",
"3'	c #FCFDFB",
"4'	c #ECEAEA",
"5'	c #867054",
"6'	c #AEB1B4",
"7'	c #DEDFDC",
"8'	c #EFEBE2",
"9'	c #6777B6",
"0'	c #254393",
"a'	c #4265A9",
"b'	c #6D7AAA",
"c'	c #2B428B",
"d'	c #244B99",
"e'	c #2B63BD",
"f'	c #394879",
"g'	c #918068",
"h'	c #E0C8A3",
"i'	c #C0A98B",
"j'	c #C5AB93",
"k'	c #D0BCAD",
"l'	c #BEA884",
"m'	c #EFD18F",
"n'	c #F2D291",
"o'	c #D2B98D",
"p'	c #BEAD9E",
"q'	c #DDC8B1",
"r'	c #B1997A",
"s'	c #D7BC96",
"t'	c #A28B6C",
"u'	c #3D3D4E",
"v'	c #263C78",
"w'	c #294DA8",
"x'	c #2E5BAE",
"y'	c #6D82B6",
"z'	c #404D8A",
"A'	c #2D4990",
"B'	c #283F7E",
"C'	c #C6C3C3",
"D'	c #E9E8ED",
"E'	c #D6D8DF",
"F'	c #85725F",
"G'	c #B6AB9F",
"H'	c #E7E9E3",
"I'	c #FCFCFC",
"J'	c #AA9587",
"K'	c #888176",
"L'	c #E4E5E7",
"M'	c #DDDDDD",
"N'	c #F7F8F5",
"O'	c #D5D7DC",
"P'	c #C0C2C8",
"Q'	c #B4B7BC",
"R'	c #37447D",
"S'	c #284F9B",
"T'	c #496BB3",
"U'	c #3F53A4",
"V'	c #293D74",
"W'	c #8F7C66",
"X'	c #D8BB95",
"Y'	c #C3B1A1",
"Z'	c #DFD1AC",
"`'	c #C3AF92",
" )	c #AD916B",
".)	c #B89F68",
"+)	c #B2A090",
"@)	c #F6EEC7",
"#)	c #C2AEA2",
"$)	c #CFB59E",
"%)	c #9F8969",
"&)	c #303446",
"*)	c #305395",
"=)	c #485E98",
"-)	c #264188",
";)	c #1E4589",
">)	c #3B61B2",
",)	c #767B7E",
"')	c #988F9B",
"))	c #A5A7B3",
"!)	c #DAD9DA",
"~)	c #F5F5F6",
"{)	c #FCFAFE",
"])	c #A9A7A6",
"^)	c #877454",
"/)	c #DDE1E7",
"()	c #F2F2F2",
"_)	c #EAEAEA",
":)	c #7A6854",
"<)	c #C6C7C8",
"[)	c #E8E8E8",
"})	c #ECECEC",
"|)	c #FCFCFA",
"1)	c #F0EFEE",
"2)	c #EAEADF",
"3)	c #4E66A0",
"4)	c #1D3887",
"5)	c #3A53A2",
"6)	c #6C76AE",
"7)	c #294185",
"8)	c #234FA5",
"9)	c #2B457F",
"0)	c #8F7D68",
"a)	c #E8D8BC",
"b)	c #BCA98C",
"c)	c #CFB990",
"d)	c #C8AC8B",
"e)	c #BEAC97",
"f)	c #D8C28C",
"g)	c #B1987D",
"h)	c #E2D4B5",
"i)	c #AB9B84",
"j)	c #2B2E41",
"k)	c #1A3A75",
"l)	c #2E5AA9",
"m)	c #7089BE",
"n)	c #34438C",
"o)	c #1E368A",
"p)	c #24438A",
"q)	c #A0A59D",
"r)	c #CEC5C4",
"s)	c #E4E3DF",
"t)	c #ECEDED",
"u)	c #F9FAF9",
"v)	c #DEE2E1",
"w)	c #847665",
"x)	c #BEB7B2",
"y)	c #ECEDEE",
"z)	c #AFA499",
"A)	c #918982",
"B)	c #F0F0E9",
"C)	c #F8F8F7",
"D)	c #8F99BB",
"E)	c #7C87A9",
"F)	c #AAB1B9",
"G)	c #50578C",
"H)	c #2D4A9A",
"I)	c #6580C9",
"J)	c #34467B",
"K)	c #917D6C",
"L)	c #CDB89C",
"M)	c #B9A285",
"N)	c #B79D6C",
"O)	c #C9AA69",
"P)	c #B79F75",
"Q)	c #D0B8A6",
"R)	c #9F8772",
"S)	c #3B4553",
"T)	c #4B5899",
"U)	c #2E4089",
"V)	c #1F448C",
"W)	c #3D5CAD",
"X)	c #80817A",
"Y)	c #7785A0",
"Z)	c #556496",
"`)	c #DBDACF",
" !	c #EFF0EB",
".!	c #FEFDFC",
"+!	c #FEFEFC",
"@!	c #FDFFFC",
"#!	c #B4B2B1",
"$!	c #8C7564",
"%!	c #F7F7F7",
"&!	c #6F5E52",
"*!	c #E0DCD8",
"=!	c #EBECEA",
"-!	c #EBE9E6",
";!	c #DED6D4",
">!	c #9EACC2",
",!	c #102C89",
"'!	c #2F4D9A",
")!	c #63709A",
"!!	c #243A8C",
"~!	c #21356A",
"{!	c #7A6E64",
"]!	c #D1B47F",
"^!	c #AF916E",
"/!	c #A48B6C",
"(!	c #D8B994",
"_!	c #96826F",
":!	c #302B37",
"<!	c #274991",
"[!	c #5C6B9A",
"}!	c #364382",
"|!	c #213B95",
"1!	c #515F8E",
"2!	c #B1AFA4",
"3!	c #C5C4BE",
"4!	c #E4E3DB",
"5!	c #E2E3E2",
"6!	c #F4F6F7",
"7!	c #7A6E65",
"8!	c #D6CEC6",
"9!	c #EFF8F7",
"0!	c #D8D8D8",
"a!	c #AFA8A2",
"b!	c #FFFDF9",
"c!	c #F1F3F2",
"d!	c #FAFBFB",
"e!	c #FBF9FB",
"f!	c #DFEBE3",
"g!	c #8890A9",
"h!	c #BEC5B7",
"i!	c #B8AFA5",
"j!	c #5561A0",
"k!	c #153790",
"l!	c #414F84",
"m!	c #726253",
"n!	c #B79562",
"o!	c #C09E6D",
"p!	c #948371",
"q!	c #484B5F",
"r!	c #1E3481",
"s!	c #2C4295",
"t!	c #93928D",
"u!	c #A4A9A5",
"v!	c #7F85A3",
"w!	c #B3AFBE",
"x!	c #D5D5D4",
"y!	c #F8F8F8",
"z!	c #D9D8D5",
"A!	c #A6A29C",
"B!	c #FAFFFF",
"C!	c #FEFDFB",
"D!	c #FDFEFF",
"E!	c #F8F7F7",
"F!	c #FAF9F7",
"G!	c #FBFBFB",
"H!	c #E6E5E3",
"I!	c #E7E4DB",
"J!	c #B7BCC7",
"K!	c #6D7B99",
"L!	c #C3C2B6",
"M!	c #8F8C8E",
"N!	c #756660",
"O!	c #886B61",
"P!	c #777776",
"Q!	c #BABBB3",
"R!	c #969DB4",
"S!	c #7C7D9C",
"T!	c #C8CDC3",
"U!	c #D1D0CD",
"V!	c #EAE8DF",
"W!	c #ECE9E9",
"X!	c #EEF3F1",
"Y!	c #FBFBFC",
"Z!	c #FDFEFB",
"`!	c #FCFEFC",
" ~	c #FAFCFD",
".~	c #F7F6F6",
"+~	c #EFEEE8",
"@~	c #E1DFE1",
"#~	c #E9E8E9",
"$~	c #ADACAD",
"%~	c #919091",
"&~	c #D8D9D6",
"*~	c #DEDDE1",
"=~	c #E8E5E1",
"-~	c #E9EAE8",
";~	c #E8E8EB",
">~	c #F5F5F5",
",~	c #FDFDFF",
"'~	c #FDFCFC",
"              .   .     . . .       .   + @ # $ % & *   .                 .                 .   ",
"              .   .     . . .             = - ; > , ' )                   .                 .   ",
"              .   .     . . .           ! ~ { ] ^ / ( _                   .                 .   ",
"              .   .     . . .           : < [ } | 1 2 3                   .                 .   ",
"              .   .     . 4 5 . . 4     6 7 8 9 0 a b c     5 4 .         .                 .   ",
"              .   .     . . 4     d .     e f g h i j k   l .     m       .                 .   ",
"              .   .     . n 5 o   p   q r s t u v w x y z   A   d 4       .                 .   ",
"              .     5   + 4 o B C D d E F G H I J K L M N O P Q R   S T     4 5             .   ",
"              .   . n U       V W X Y Z `  ...+.@.#.$.%.&.*.=.-.;.      >.. o               .   ",
"                . .     ,.'.).!.~.{.].^./.(._.:.<.[.}.|.1.2.3.4.5.6.7.8.  9.o 4 . .         .   ",
"              5 4   0.  a.b.c.d.e.f.g.h.i.j.k.l.m.n.o.p.q.r.s.t.u.v.w.x.y.S S   . z.5       .   ",
"                5 A.B.  C.D.E.F.G.H.I.J.K.L.M.N.O.P.Q.R.S.T.U.V.W.X.Y.Z.`.o  +.+5 . z.      .   ",
"                  ++@+#+$+%+&+*+=+-+;+>+,+'+)+!+~+{+]+^+/+(+_+:+<+[+}+|+1+2+3+4+5+6+        .   ",
"          5 4     7+8+9+0+a+b+c+d+e+f+g+h+i+j+k+l+m+n+o+p+q+r+s+t+u+v+w+x+y+z+  A+9.  .     .   ",
"            B+C+D+E+F+G+H+I+J+K+L+M+N+O+P+Q+R+S+T+U+V+W+X+Y+Z+`+ @.@+@@@#@$@%@&@*@=@.       .   ",
"      . .   -@;@>@,@'@)@!@~@{@]@^@/@(@_@:@<@[@}@|@1@2@3@4@5@6@7@8@9@0@a@b@c@d@e@f@g@    5   .   ",
"    . n z.n h@i@j@k@l@m@n@o@p@q@r@s@t@u@v@w@x@y@z@A@B@C@D@E@F@G@H@I@J@K@L@M@N@O@P@Q@5 4 5 4 .   ",
"  n   l R@  d S@T@U@V@W@X@Y@Z@`@ #.#+#@###$#%#&#*#=#-#;#>#,#'#)#!#~#{#]#^#/#(#_#:#<#    l   .   ",
"  5 n [#}#|#1#2#3#4#5#6#7#8#9#0#a#b#c#d#e#f#g#h#i#j#k#l#m#n#o#p#q#r#s#t#u#v#w#x#y#z#A#B#d   .   ",
"  z.m C#D#E#F#G#H#I#J#K#L#M#N#O#P#Q#R#S#T#U#V#W#X#Y#Z#`# $.$+$@$#$$$%$&$*$=$-$;$>$,$'$)$m   .   ",
"  m !$~$  {$]$^$/$($_$:$<$[$}$|$1$2$3$4$5$6$7$8$9$0$a$b$c$d$e$f$g$h$i$j$k$l$m$n$o$p$q$  C#  .   ",
".   r$5 s$t$u$v$w$x$y$z$A$B$C$D$E$F$G$H$I$J$K$L$M$N$O$P$Q$R$S$T$U$V$W$X$Y$Z$`$ %.%+%@%#%    . . ",
"      $%%%&%*%=%-%;%>%,%'%)%!%~%{%]%^%/%(%_%:%<%[%}%|%1%2%3%4%5%6%7%8%9%0%a%b%c%d%e%f%g%h%      ",
"i%j%k%l%m%n%o%p%q%r%s%t%u%v%w%x%y%z%A%B%C%D%E%F%G%H%I%J%K%L%M%N%O%P%Q%R%S%T%U%V%W%X%Y%Z%`% &.&+&",
"@&#&$&%&&&*&=&-&;&>&,&'&)&!&~&{&]&^&/&(&_&:&<&[&}&|&1&2&3&4&5&6&7&8&9&0&a&b&c&d&e&f&g&h&i&j&k&l&",
"  m&n&o&p&q&r&s&t&u&v&w&x&y&z&A&B&C&D&E&F&G&H&I&J&K&L&M&N&O&o$P&Q&R&S&T&U&V&H W&X&Y&Z&`& *.*+*@*",
"#*  $*%*&***=*-*;*>*,*'*)*!*~*{*]*^*/*(*_*:*<*[*}*|*1*2*3*4*5*6*7*8*9*0*a*b*c*d*e*f*g*h*i*j*k*T ",
"  .   l*m*n*o*p*q*r*s*t*u*v*w*x*y*z*A*B*C*D*E*F*G*H*I*J*K*L*M*N*O*P*Q*R*S*T*U*V*W*X*Y*Z*`* =.=. ",
".   4   +=@=#=$=%=&=*===-=;=>=,='=)=!=~={=]=^=/=(=_=:=<=[=}=|=1=2=3=4=5=6=7=8=9=0=a=b=c=d=e=#*  ",
"    5 d f=g=h=i=j=k=l=m=n=o=p=q=r=s=t=u=v=w=x=y=z=A=B=C=D=E=F=G=H=I=J=K=L=M=N=O=P=Q=R=S=T=U=  . ",
"      V=W=X=Y=Z=`= -.-+-@-#-$-%-&-*-=---;->-,-'-)-!-~-{-]-^-/-(-_-:-<-[-}-|-1-2-3-4-5-6-7-8-  . ",
"    9.4+9-0-a-b-c-d-e-f-g-h-i-j-k-l-m-n-o-p-q-r-s-t-u-v-w-x-y-z-A-B-C-D-E-F-G-H-I-J-K-L-M-N-  . ",
"    m O-P-Q-R-S-T-U-V-W-X-Y-Z-`- ;.;+;@;#;$;%;&;*;=;-;;;>;,;';);!;~;{;];^;/;(;_;:;<;[;};|;1;  . ",
"  4 5 2;4+3;4;5;6;7;8;9;0;a;b;c;d;e;f;g; $h;i;j;k;l;m;n;o;p;q;r;s;t;u;v;w;x;y;z;A;B;C;D;E;.   . ",
"    d 2;}#F;G;H;I;J;K;L;M;N;O;P;Q;R;S;T;U;V;W;X;Y;Z;`; >.>+>@>#>$>%>&>*>=>->;>>>,>'>)>!>~>      ",
"    . o 5 _&{>]>^>/>(>_>:><>[>}>|>1>2>3>4>5>6>7>8>9>0>a>b>c>d>e>f>g>h>i>j>k>l>m>n>o>p>q>r>      ",
"  5     . s>t>u>v>w>x>y>z>A>B>C>D>E>F>G>H>I>J>K>L>M>N>O>P>Q>R>S>T>U>V>W>X>Y>Z>`> ,.,+,@,#,  .   ",
"    n   +   $,%,&,*,=,-,;,>,,,',),!,~,{,],^,/,(,_,:,<,[,},|,1,2,3,4,5,6,7,8,9,0,a,b,c,d,        ",
"  5   e,  f,g,h,i,j,k,l,m,n,o,p,q,r,s,t,u,v,w,x,y,z,A,B,C,D,E,F,G,H,I,J,K,L,M,N,O,P,Q,R,S,. . . ",
"    5 T   T,U,V,W,X,Y,Z,`, '.'+'@'#'$'%'&'*'='-';'>',''')'!'~'{']'^'/'('_':'<'['}'|'1'2'r>    . ",
"    6+3'4'5'6'7'8'9'0'a'b'c'd'e'f'g'h'i'j'k'l'm'n'o'p'q'r's't'u'v'w'x'y'z'A'B'C'D'E'F'G'H'I'    ",
"  n 6+  J'K'L'M'N'O'P'Q'R'F%S'T'U'V'W'X'Y'Z'`' ).)+)@)#)$)%)&)*)=)-);)>),)')))!)~){)])^)/)()  . ",
". 5   _):)<)[)})T |)1)2)3)4)5)6)7)8)9)0)a)b)c)d)e)f)g)h)i)j)k)l)m)n)o)p)q)r)s)t)u)  v)w)x)y)T . ",
".     z)A)B)_)C)  . T   D)E)F)G)}+H)I)J)K)L)M)N)O)P)Q)R)S)T)U)V)W)X)Y)Z)`) !.!  . +!@!#!$!y)%!  ",
"  .   &!*!=!D .       4 o -!;!>!,!'!)!!!~!{!]!^!/!(!_!:!<![!}!|!1!2!3!4!5!%!5 . . S >.6!7!8!9!9.",
"    0!a!b!c!d!.   . .   I'd!e!f!g!h!i!j!k!l!m!n!o!p!q!r!s!t!u!v!w!x!N-y!#*.       n   I'z!A!B!C!",
"  . 1;D!E!F!.   . .     .   5 2;G!H!I!J!K!L!M!N!O!P!Q!R!S!T!U!V!W!r>.   .   .       . . 4 X!Y!+!",
"  T T . T .   .   .   .     6+Z!9.`! ~.~+~@~#~$~%~&~*~=~-~;~>~U ,~T .     .           4 . '~9.. "};
